bookName,author,quantity
the portrait of a lady,Henry James,0
The Picture of Dorian Gray,Oscar Wilde,4
The Return of the King,Tolkien,5
The Hobbit,Tolkien,7
The Two Towers,Tolkien,1
Harry potter and the Chamber of secrets,JK Rowling,2
Java for dummies,Barry Burd,10
The Fellowship of the ring,Tolkien,5
Pieces of light,Charles Fenry,7
Clean Code,Robert Martin,4
